{
    "fluentMethods": true,
    "clientRootFolder": "",
    "relationships": [],
    "fields": [
        {
            "fieldName": "name",
            "fieldType": "String"
        },
        {
            "fieldName": "code",
            "fieldType": "String"
        },
        {
            "fieldName": "targetConfirms",
            "fieldType": "Long"
        },
        {
            "fieldName": "activeFlg",
            "fieldType": "Integer"
        },
        {
            "fieldName": "created",
            "fieldType": "ZonedDateTime"
        },
        {
            "fieldName": "updated",
            "fieldType": "ZonedDateTime"
        },
        {
            "fieldName": "isDemo",
            "fieldType": "Integer"
        },
        {
            "fieldName": "maxSize",
            "fieldType": "Integer"
        },
        {
            "fieldName": "minSize",
            "fieldType": "Integer"
        },
        {
            "fieldName": "maxTime",
            "fieldType": "Integer"
        },
        {
            "fieldName": "initAmountDemo",
            "fieldType": "BigDecimal"
        },
        {
            "fieldName": "decimalAmount",
            "fieldType": "Integer"
        },
        {
            "fieldName": "baseUnit",
            "fieldType": "Integer"
        }
    ],
    "changelogDate": "20190808080349",
    "dto": "no",
    "searchEngine": false,
    "service": "serviceImpl",
    "entityTableName": "currency",
    "databaseType": "sql",
    "jpaMetamodelFiltering": false,
    "pagination": "pagination"
}
